verilog/log.txt
TEST      x,      y, zx, nx, zy, ny, f, no
TEST      1,      2,  0,  0,  0,  0, 1,  0
RES:             out, zr, ng
RES:               3, 0,  0
TEST      x,      y, zx, nx, zy, ny, f, no
TEST     10,     20,  0,  0,  0,  0, 1,  0
RES:             out, zr, ng
RES:              30, 0,  0
TEST      x,      y, zx, nx, zy, ny, f, no
TEST     10,     20,  0,  0,  0,  0, 1,  0
RES:             out, zr, ng
RES:              30, 0,  0
TEST      x,      y, zx, nx, zy, ny, f, no
TEST     51,     32,  0,  0,  0,  0, 1,  0
RES:             out, zr, ng
RES:              83, 0,  0
TEST      x,      y, zx, nx, zy, ny, f, no
TEST      1,      1,  0,  0,  0,  0, 0,  0
RES:             out, zr, ng
RES:               1, 0,  0
TEST      x,      y, zx, nx, zy, ny, f, no
TEST      0,      1,  0,  0,  0,  0, 0,  0
RES:             out, zr, ng
RES:               0, 1,  0
TEST      x,      y, zx, nx, zy, ny, f, no
TEST      1,      0,  0,  0,  0,  0, 0,  0
RES:             out, zr, ng
RES:               0, 1,  0
TEST      x,      y, zx, nx, zy, ny, f, no
TEST     15,     18,  1,  0,  0,  0, 1,  0
RES:             out, zr, ng
RES:              18, 0,  0
TEST      x,      y, zx, nx, zy, ny, f, no
TEST     15,     18,  0,  0,  1,  0, 1,  0
RES:             out, zr, ng
RES:              15, 0,  0
TEST      x,      y, zx, nx, zy, ny, f, no
TEST     15,     18,  1,  0,  1,  0, 1,  0
RES:             out, zr, ng
RES:               0, 1,  0
TEST      x,      y, zx, nx, zy, ny, f, no
TEST     15,     18,  1,  1,  1,  1, 1,  1
RES:             out, zr, ng
RES:               1, 0,  0
alu_tb.sv PASS
alu_tb.sv:86: $finish called at 11 (1s)
No top level modules, and no -s option.
computer_tb.sv: Too big values
computer_tb.sv:45: $finish called at 0 (1s)
Time=0 clk=0 reset=1 inM=0000 instruction=0000000000000000 reset=1 | outM=0000 writeM=0 addressM=0000 pc=    0
Time=10 clk=1 reset=0 inM=0000 instruction=0000000000000000 reset=0 | outM=0000 writeM=0 addressM=0000 pc=    0
Time=20 clk=0 reset=0 inM=0000 instruction=0000000000000000 reset=0 | outM=0000 writeM=0 addressM=0000 pc=    1
Time=30 clk=1 reset=0 inM=0000 instruction=0000101010100001 reset=0 | outM=0000 writeM=0 addressM=0000 pc=    1
Time=40 clk=0 reset=0 inM=0000 instruction=0000101010100001 reset=0 | outM=0000 writeM=0 addressM=0aa1 pc=    2
cpu_tb.sv: CHECK
Time=50 clk=1 reset=0 inM=0000 instruction=1000111111001000 reset=0 | outM=0001 writeM=1 addressM=0aa1 pc=    2
cpu_tb.sv: CHECK
Time=60 clk=0 reset=0 inM=0000 instruction=1110110000001000 reset=0 | outM=0aa1 writeM=1 addressM=0aa1 pc=    3
cpu_tb.sv: CHECK
Time=70 clk=1 reset=0 inM=0aa1 instruction=1110110111100000 reset=0 | outM=0aa2 writeM=0 addressM=0aa1 pc=    3
Time=80 clk=0 reset=0 inM=0aa1 instruction=1110110111100000 reset=0 | outM=0aa3 writeM=0 addressM=0aa2 pc=    4
cpu_tb.sv: CHECK
Time=90 clk=1 reset=0 inM=0aa1 instruction=1110110010100000 reset=0 | outM=0aa1 writeM=0 addressM=0aa2 pc=    4
Time=100 clk=0 reset=0 inM=0aa1 instruction=1110110010100000 reset=0 | outM=0aa0 writeM=0 addressM=0aa1 pc=    5
cpu_tb.sv: CHECK
Time=110 clk=1 reset=0 inM=0aa1 instruction=1111110111101000 reset=0 | outM=0aa2 writeM=1 addressM=0aa1 pc=    5
Time=120 clk=0 reset=0 inM=0aa1 instruction=1111110111101000 reset=0 | outM=0aa2 writeM=1 addressM=0aa2 pc=    6
cpu_tb.sv: CHECK
Time=130 clk=1 reset=0 inM=0aa1 instruction=0000000000000101 reset=0 | outM=0000 writeM=0 addressM=0aa2 pc=    6
Time=140 clk=0 reset=0 inM=0aa1 instruction=0000000000000101 reset=0 | outM=0000 writeM=0 addressM=0005 pc=    7
cpu_tb.sv: CHECK
Time=150 clk=1 reset=0 inM=0aa1 instruction=1110110000010000 reset=0 | outM=0005 writeM=0 addressM=0005 pc=    7
Time=160 clk=0 reset=0 inM=0aa1 instruction=1110110000010000 reset=0 | outM=0005 writeM=0 addressM=0005 pc=    8
Time=170 clk=1 reset=0 inM=0aa1 instruction=1110011111100000 reset=0 | outM=0006 writeM=0 addressM=0005 pc=    8
Time=180 clk=0 reset=0 inM=0aa1 instruction=1110011111100000 reset=0 | outM=0006 writeM=0 addressM=0006 pc=    9
cpu_tb.sv: CHECK
Time=190 clk=1 reset=0 inM=0aa1 instruction=1110101010000111 reset=0 | outM=0000 writeM=0 addressM=0006 pc=    9
Time=200 clk=0 reset=0 inM=0aa1 instruction=1110101010000111 reset=0 | outM=0000 writeM=0 addressM=0006 pc=    6
cpu_tb.sv: CHECK
cpu_tb.sv: PASS
cpu_tb.sv:125: $finish called at 210 (1s)
Time=210 clk=1 reset=0 inM=0aa1 instruction=1110101010000111 reset=0 | outM=0000 writeM=0 addressM=0006 pc=    6
TEST opcode=0, j1=0, j2=0, j3=1, zr=0, ng=0, out_load=0, out_inc=1
TEST opcode=0, j1=1, j2=1, j3=1, zr=1, ng=0, out_load=0, out_inc=1
TEST opcode=1, j1=0, j2=0, j3=1, zr=0, ng=0, out_load=1, out_inc=0
TEST opcode=1, j1=0, j2=1, j3=0, zr=1, ng=0, out_load=1, out_inc=0
TEST opcode=1, j1=0, j2=1, j3=1, zr=1, ng=0, out_load=1, out_inc=0
TEST opcode=1, j1=0, j2=1, j3=1, zr=0, ng=0, out_load=1, out_inc=0
jmp_handle_tb.sv: PASS
jmp_handle_tb.sv:54: $finish called at 6 (1s)
Time=0 clk=0 reset=1 load=0 inc=0 in_data=0000 out_data=0000
Time=10 clk=1 reset=0 load=0 inc=0 in_data=0000 out_data=0000
Time=20 clk=0 reset=0 load=0 inc=0 in_data=0000 out_data=0000
Time=30 clk=1 reset=0 load=1 inc=0 in_data=abcd out_data=0000
Time=40 clk=0 reset=0 load=1 inc=0 in_data=abcd out_data=abcd
Time=50 clk=1 reset=0 load=0 inc=0 in_data=abcd out_data=abcd
Time=60 clk=0 reset=0 load=0 inc=0 in_data=abcd out_data=abcd
Time=70 clk=1 reset=0 load=0 inc=0 in_data=abcd out_data=abcd
Time=80 clk=0 reset=0 load=0 inc=0 in_data=abcd out_data=abcd
Time=90 clk=1 reset=0 load=1 inc=0 in_data=1111 out_data=abcd
Time=100 clk=0 reset=0 load=1 inc=0 in_data=1111 out_data=1111
Time=110 clk=1 reset=0 load=0 inc=0 in_data=1111 out_data=1111
Time=120 clk=0 reset=0 load=0 inc=0 in_data=1111 out_data=1111
Time=130 clk=1 reset=0 load=0 inc=1 in_data=1111 out_data=1111
Time=140 clk=0 reset=0 load=0 inc=1 in_data=1111 out_data=1112
Time=150 clk=1 reset=0 load=0 inc=0 in_data=1111 out_data=1112
Time=160 clk=0 reset=0 load=0 inc=0 in_data=1111 out_data=1112
Time=170 clk=1 reset=0 load=0 inc=1 in_data=1111 out_data=1112
Time=180 clk=0 reset=0 load=0 inc=1 in_data=1111 out_data=1113
pc.sv: PASS
pc_tb.sv:93: $finish called at 190 (1s)
Time=190 clk=1 reset=0 load=0 inc=0 in_data=1111 out_data=1113
Time=0 clk=0 reset=1 write=0 in_data=0000 out_data=0000
Time=10 clk=1 reset=0 write=0 in_data=0000 out_data=0000
Time=20 clk=0 reset=0 write=1 in_data=abcd out_data=abcd
Time=30 clk=1 reset=0 write=1 in_data=abcd out_data=abcd
Time=40 clk=0 reset=0 write=0 in_data=abcd out_data=abcd
Time=50 clk=1 reset=0 write=0 in_data=abcd out_data=abcd
Time=60 clk=0 reset=0 write=0 in_data=abcd out_data=abcd
Time=70 clk=1 reset=0 write=0 in_data=abcd out_data=abcd
Time=80 clk=0 reset=0 write=1 in_data=1111 out_data=1111
Time=90 clk=1 reset=0 write=1 in_data=1111 out_data=1111
Time=100 clk=0 reset=0 write=1 in_data=1111 out_data=1111
Time=110 clk=1 reset=0 write=1 in_data=1111 out_data=1111
Time=120 clk=0 reset=1 write=0 in_data=1111 out_data=0000
Time=130 clk=1 reset=1 write=0 in_data=1111 out_data=0000
register.sv: PASS
register_tb.sv:77: $finish called at 140 (1s)
Time=140 clk=0 reset=0 write=0 in_data=1111 out_data=0000
